{
  "@quasar/icon-genie": {
    "minify_dev": "pngquant",
    "minify_build": "zopfli",
    "cordova": {
      "background_color": "#000074",
      "splashscreen_type": "pure"
    },
    "build_always": false,
    "__internal": {
      "dev": {
        "spa": {
          "iconHash": "d76de84367a3e74c3221d6122b898f2c"
        }
      },
      "build": {
        "spa": {
          "iconHash": "d76de84367a3e74c3221d6122b898f2c"
        }
      }
    }
  },
  "@quasar/dotenv": {
    "env_development": ".env.dev",
    "env_production": ".env.prod",
    "common_root_object": "none",
    "create_env_files": true,
    "add_env_to_gitignore": true
  },
  "@quasar/qmediaplayer": {},
  "@quasar/qplaceholder": {},
  "@quasar/colorize": {}
}